middleFlexion 0.35 0.1
middleFlexion 0.35 0.25
middleFlexion 0.35 0.5
middleFlexion 0.35 0.75
middleFlexion 0.35 0.99
middleFlexion 0.35 0.99
middleFlexion 0.35 0.75
middleFlexion 0.35 0.5
middleFlexion 0.35 0.25
middleFlexion 0.35 0.1
delay 3 0
indexFlexion 0.35 0.1
indexFlexion 0.35 0.25
indexFlexion 0.35 0.5
indexFlexion 0.35 0.75
indexFlexion 0.35 0.99
indexFlexion 0.35 0.99
indexFlexion 0.35 0.75
indexFlexion 0.35 0.5
indexFlexion 0.35 0.25
indexFlexion 0.35 0.1
delay 3 0
middleFlexion 0.35 0.1
middleFlexion 0.35 0.25
middleFlexion 0.35 0.5
middleFlexion 0.35 0.75
middleFlexion 0.35 0.99
middleFlexion 0.35 0.99
middleFlexion 0.35 0.75
middleFlexion 0.35 0.5
middleFlexion 0.35 0.25
middleFlexion 0.35 0.1
delay 3 0
indexFlexion 0.35 0.1
indexFlexion 0.35 0.25
indexFlexion 0.35 0.5
indexFlexion 0.35 0.75
indexFlexion 0.35 0.99
indexFlexion 0.35 0.99
indexFlexion 0.35 0.75
indexFlexion 0.35 0.5
indexFlexion 0.35 0.25
indexFlexion 0.35 0.1
delay 3 0
indexFlexion 0.35 0.1
indexFlexion 0.35 0.25
indexFlexion 0.35 0.5
indexFlexion 0.35 0.75
indexFlexion 0.35 0.99
indexFlexion 0.35 0.99
indexFlexion 0.35 0.75
indexFlexion 0.35 0.5
indexFlexion 0.35 0.25
indexFlexion 0.35 0.1
delay 3 0
middleFlexion 0.35 0.1
middleFlexion 0.35 0.25
middleFlexion 0.35 0.5
middleFlexion 0.35 0.75
middleFlexion 0.35 0.99
middleFlexion 0.35 0.99
middleFlexion 0.35 0.75
middleFlexion 0.35 0.5
middleFlexion 0.35 0.25
middleFlexion 0.35 0.1
delay 3 0
